<?xml version='1.0' encoding='UTF-8'?>
<types:mule xmlns:types="http://www.mulesoft.org/schema/mule/types">
  <types:catalog>
    <types:type name="auto_306a3fcb-dd51-4569-a432-11f7a9496579_Output-Variables-httpStatus" format="java">
      <types:shape format="raml" autogeneratedOrigin="f98ab619-ff99-4163-8b1c-30f359536369"><![CDATA[#%RAML 1.0 DataType
type: string]]></types:shape>
    </types:type>
    <types:type name="auto_306a3fcb-dd51-4569-a432-11f7a9496579_Input-Payload" format="java">
      <types:shape format="weave" example="weave/autogenerated/306a3fcb-dd51-4569-a432-11f7a9496579/Input-Payload.wev" autogeneratedOrigin="f98ab619-ff99-4163-8b1c-30f359536369"><![CDATA[%dw 2.0

type auto_306a3fcb_dd51_4569_a432_11f7a9496579_Input_Payload = Any

]]></types:shape>
    </types:type>
    <types:type name="auto_306a3fcb-dd51-4569-a432-11f7a9496579_Output-Variables-outboundHeaders" format="java">
      <types:shape format="weave" example="weave/autogenerated/306a3fcb-dd51-4569-a432-11f7a9496579/Output-Variables-outboundHeaders.wev" autogeneratedOrigin="f98ab619-ff99-4163-8b1c-30f359536369"><![CDATA[%dw 2.0

type auto_306a3fcb_dd51_4569_a432_11f7a9496579_Output_Variables_outboundHeaders = {|  |}

]]></types:shape>
    </types:type>
    <types:type name="auto_306a3fcb-dd51-4569-a432-11f7a9496579_Output-Attributes" format="java">
      <types:shape format="weave" example="weave/autogenerated/306a3fcb-dd51-4569-a432-11f7a9496579/Output-Attributes.wev" autogeneratedOrigin="f98ab619-ff99-4163-8b1c-30f359536369"><![CDATA[%dw 2.0

type auto_306a3fcb_dd51_4569_a432_11f7a9496579_Output_Attributes = {|
  statusCode: Number, 
  reasonPhrase: String, 
  headers: { _?: String }
|} {"typeAlias": "HttpResponseAttributes",
"typeId": "org.mule.extension.http.api.HttpResponseAttributes"}

]]></types:shape>
    </types:type>
    <types:type name="auto_306a3fcb-dd51-4569-a432-11f7a9496579_Input-Variables-httpStatus" format="java">
      <types:shape format="raml" autogeneratedOrigin="f98ab619-ff99-4163-8b1c-30f359536369"><![CDATA[#%RAML 1.0 DataType
type: string]]></types:shape>
    </types:type>
    <types:type name="auto_306a3fcb-dd51-4569-a432-11f7a9496579_Input-Variables-outboundHeaders" format="java">
      <types:shape format="weave" example="weave/autogenerated/306a3fcb-dd51-4569-a432-11f7a9496579/Input-Variables-outboundHeaders.wev" autogeneratedOrigin="f98ab619-ff99-4163-8b1c-30f359536369"><![CDATA[%dw 2.0

type auto_306a3fcb_dd51_4569_a432_11f7a9496579_Input_Variables_outboundHeaders = {|  |}

]]></types:shape>
    </types:type>
    <types:type name="auto_306a3fcb-dd51-4569-a432-11f7a9496579_Output-Payload" format="json">
      <types:shape format="weave" example="weave/autogenerated/306a3fcb-dd51-4569-a432-11f7a9496579/Output-Payload.wev" autogeneratedOrigin="f98ab619-ff99-4163-8b1c-30f359536369"><![CDATA[%dw 2.0

type auto_306a3fcb_dd51_4569_a432_11f7a9496579_Output_Payload = {
  message: String, 
  _?: Any
}

]]></types:shape>
    </types:type>
    <types:type name="auto_306a3fcb-dd51-4569-a432-11f7a9496579_Input-Attributes" format="java">
      <types:shape format="weave" example="weave/autogenerated/306a3fcb-dd51-4569-a432-11f7a9496579/Input-Attributes.wev" autogeneratedOrigin="f98ab619-ff99-4163-8b1c-30f359536369"><![CDATA[%dw 2.0

type auto_306a3fcb_dd51_4569_a432_11f7a9496579_Input_Attributes = {|
  clientCertificate?: {|
    publicKey?: {|  |}, 
    "type"?: String, 
    encoded?: Binary
  |}, 
  headers: {| key: String |}, 
  listenerPath: String, 
  method: String, 
  queryParams: {|
    dates?: String, 
    platforms?: String, 
    genres?: String, 
    stores?: String, 
    ordering?: "added" | "created" | "name" | "rating" | "metacritic" | "updated" | "released"
  |}, 
  queryString: String, 
  relativePath: String, 
  remoteAddress: String, 
  requestPath: String, 
  requestUri: String, 
  scheme: String, 
  uriParams: {|  |}, 
  version: String, 
  localAddress: String
|}

]]></types:shape>
    </types:type>
    <types:type name="results" format="json">
      <types:shape format="weave" example="examples/results.json"><![CDATA[%dw 2.0

type results = {|
  count: Number {"typeId": "int"}, 
  next: String, 
  previous: Null, 
  results: Array<{|    slug: String,     name: String,     playtime: Number {"typeId": "int"},     platforms: Array<{|      platform: {|        id: Number {"typeId": "int"},         name: String,         slug: String      |}    |}>, 
    stores: Array<{|      store: {|        id: Number {"typeId": "int"},         name: String,         slug: String      |}    |}>, 
    released: String, 
    tba: Boolean, 
    background_image: String, 
    rating: Number {"typeId": "double"}, 
    rating_top: Number {"typeId": "int"}, 
    ratings: Array<{|      id: Number {"typeId": "int"},       title: String,       count: Number {"typeId": "int"},       percent: Number {"typeId": "double"}    |}>, 
    ratings_count: Number {"typeId": "int"}, 
    reviews_text_count: Number {"typeId": "int"}, 
    added: Number {"typeId": "int"}, 
    added_by_status: {|
      yet: Number {"typeId": "int"}, 
      owned: Number {"typeId": "int"}, 
      beaten: Number {"typeId": "int"}, 
      toplay: Number {"typeId": "int"}, 
      dropped: Number {"typeId": "int"}, 
      playing: Number {"typeId": "int"}
    |}, 
    metacritic: Number {"typeId": "int"}, 
    suggestions_count: Number {"typeId": "int"}, 
    updated: String, 
    id: Number {"typeId": "int"}, 
    score: Null, 
    clip: Null, 
    tags: Array<{|      id: Number {"typeId": "int"},       name: String,       slug: String,       language: String,       games_count: Number {"typeId": "int"},       image_background: String    |}>, 
    esrb_rating: Null, 
    user_game: Null, 
    reviews_count: Number {"typeId": "int"}, 
    saturated_color: String, 
    dominant_color: String, 
    short_screenshots: Array<{|      id: Number {"typeId": "int"},       image: String    |}>, 
    parent_platforms: Array<{|      platform: {|        id: Number {"typeId": "int"},         name: String,         slug: String      |}    |}>, 
    genres: Array<{|      id: Number {"typeId": "int"},       name: String,       slug: String    |}>
  |}>, 
  user_platforms: Boolean
|} {"example": "{\\\"count\\\":365,\\\"next\\\":\\\"https:\\/\\/api.rawg.io\\/api\\/games?dates=2019-01-01%2C2021-02-02&genres=4%2C+51&key=8a17f8cfb4ca452fbe6956428b62fa7e&ordering=-released&page=2&page_size=2&platforms=2%2C+5&stores=5%2C+6\\\",\\\"previous\\\":null,\\\"results\\\":[{\\\"slug\\\":\\\"tohu\\\",\\\"name\\\":\\\"TOHU\\\",\\\"playtime\\\":3,\\\"platforms\\\":[{\\\"platform\\\":{\\\"id\\\":4,\\\"name\\\":\\\"PC\\\",\\\"slug\\\":\\\"pc\\\"}},{\\\"platform\\\":{\\\"id\\\":1,\\\"name\\\":\\\"Xbox One\\\",\\\"slug\\\":\\\"xbox-one\\\"}},{\\\"platform\\\":{\\\"id\\\":18,\\\"name\\\":\\\"PlayStation 4\\\",\\\"slug\\\":\\\"playstation4\\\"}},{\\\"platform\\\":{\\\"id\\\":7,\\\"name\\\":\\\"Nintendo Switch\\\",\\\"slug\\\":\\\"nintendo-switch\\\"}},{\\\"platform\\\":{\\\"id\\\":3,\\\"name\\\":\\\"iOS\\\",\\\"slug\\\":\\\"ios\\\"}},{\\\"platform\\\":{\\\"id\\\":5,\\\"name\\\":\\\"macOS\\\",\\\"slug\\\":\\\"macos\\\"}}],\\\"stores\\\":[{\\\"store\\\":{\\\"id\\\":1,\\\"name\\\":\\\"Steam\\\",\\\"slug\\\":\\\"steam\\\"}},{\\\"store\\\":{\\\"id\\\":3,\\\"name\\\":\\\"PlayStation Store\\\",\\\"slug\\\":\\\"playstation-store\\\"}},{\\\"store\\\":{\\\"id\\\":2,\\\"name\\\":\\\"Xbox Store\\\",\\\"slug\\\":\\\"xbox-store\\\"}},{\\\"store\\\":{\\\"id\\\":4,\\\"name\\\":\\\"App Store\\\",\\\"slug\\\":\\\"apple-appstore\\\"}},{\\\"store\\\":{\\\"id\\\":5,\\\"name\\\":\\\"GOG\\\",\\\"slug\\\":\\\"gog\\\"}}],\\\"released\\\":\\\"2021-01-28\\\",\\\"tba\\\":false,\\\"background_image\\\":\\\"https:\\/\\/media.rawg.io\\/media\\/games\\/53e\\/53e97e0a99e75fc213f52b89623d1d4c.jpg\\\",\\\"rating\\\":3.41,\\\"rating_top\\\":4,\\\"ratings\\\":[{\\\"id\\\":4,\\\"title\\\":\\\"recommended\\\",\\\"count\\\":13,\\\"percent\\\":59.09},{\\\"id\\\":3,\\\"title\\\":\\\"meh\\\",\\\"count\\\":5,\\\"percent\\\":22.73},{\\\"id\\\":1,\\\"title\\\":\\\"skip\\\",\\\"count\\\":3,\\\"percent\\\":13.64},{\\\"id\\\":5,\\\"title\\\":\\\"exceptional\\\",\\\"count\\\":1,\\\"percent\\\":4.55}],\\\"ratings_count\\\":21,\\\"reviews_text_count\\\":1,\\\"added\\\":725,\\\"added_by_status\\\":{\\\"yet\\\":39,\\\"owned\\\":626,\\\"beaten\\\":15,\\\"toplay\\\":32,\\\"dropped\\\":10,\\\"playing\\\":3},\\\"metacritic\\\":70,\\\"suggestions_count\\\":466,\\\"updated\\\":\\\"2023-01-20T23:08:22\\\",\\\"id\\\":315987,\\\"score\\\":null,\\\"clip\\\":null,\\\"tags\\\":[{\\\"id\\\":31,\\\"name\\\":\\\"Singleplayer\\\",\\\"slug\\\":\\\"singleplayer\\\",\\\"language\\\":\\\"eng\\\",\\\"games_count\\\":220522,\\\"image_background\\\":\\\"https:\\/\\/media.rawg.io\\/media\\/games\\/511\\/5118aff5091cb3efec399c808f8c598f.jpg\\\"},{\\\"id\\\":42392,\\\"name\\\":\\\"\u041F\u0440\u0438\u043A\u043B\u044E\u0447\u0435\u043D\u0438\u0435\\\",\\\"slug\\\":\\\"prikliuchenie\\\",\\\"language\\\":\\\"rus\\\",\\\"games_count\\\":36505,\\\"image_background\\\":\\\"https:\\/\\/media.rawg.io\\/media\\/games\\/2ba\\/2bac0e87cf45e5b508f227d281c9252a.jpg\\\"},{\\\"id\\\":40847,\\\"name\\\":\\\"Steam Achievements\\\",\\\"slug\\\":\\\"steam-achievements\\\",\\\"language\\\":\\\"eng\\\",\\\"games_count\\\":36657,\\\"image_background\\\":\\\"https:\\/\\/media.rawg.io\\/media\\/games\\/490\\/49016e06ae2103881ff6373248843069.jpg\\\"},{\\\"id\\\":42398,\\\"name\\\":\\\"\u0418\u043D\u0434\u0438\\\",\\\"slug\\\":\\\"indi-2\\\",\\\"language\\\":\\\"rus\\\",\\\"games_count\\\":53503,\\\"image_background\\\":\\\"https:\\/\\/media.rawg.io\\/media\\/games\\/63f\\/63f0e68688cad279ed38cde931dbfcdb.jpg\\\"},{\\\"id\\\":40836,\\\"name\\\":\\\"Full controller support\\\",\\\"slug\\\":\\\"full-controller-support\\\",\\\"language\\\":\\\"eng\\\",\\\"games_count\\\":17269,\\\"image_background\\\":\\\"https:\\/\\/media.rawg.io\\/media\\/games\\/8a0\\/8a02f84a5916ede2f923b88d5f8217ba.jpg\\\"},{\\\"id\\\":40849,\\\"name\\\":\\\"Steam Cloud\\\",\\\"slug\\\":\\\"steam-cloud\\\",\\\"language\\\":\\\"eng\\\",\\\"games_count\\\":17278,\\\"image_background\\\":\\\"https:\\/\\/media.rawg.io\\/media\\/games\\/b49\\/b4912b5dbfc7ed8927b65f05b8507f6c.jpg\\\"}],\\\"esrb_rating\\\":null,\\\"user_game\\\":null,\\\"reviews_count\\\":22,\\\"saturated_color\\\":\\\"0f0f0f\\\",\\\"dominant_color\\\":\\\"0f0f0f\\\",\\\"short_screenshots\\\":[{\\\"id\\\":-1,\\\"image\\\":\\\"https:\\/\\/media.rawg.io\\/media\\/games\\/53e\\/53e97e0a99e75fc213f52b89623d1d4c.jpg\\\"},{\\\"id\\\":1919301,\\\"image\\\":\\\"https:\\/\\/media.rawg.io\\/media\\/screenshots\\/5ae\\/5aed107c95f55f699cc8e5a010911ee2.jpg\\\"},{\\\"id\\\":1919302,\\\"image\\\":\\\"https:\\/\\/media.rawg.io\\/media\\/screenshots\\/f71\\/f712fd942e16d0e592bf94b828527010.jpg\\\"},{\\\"id\\\":1919303,\\\"image\\\":\\\"https:\\/\\/media.rawg.io\\/media\\/screenshots\\/b8b\\/b8bad0e025ecc9fce52ec06c9d8f790d.jpg\\\"},{\\\"id\\\":1919304,\\\"image\\\":\\\"https:\\/\\/media.rawg.io\\/media\\/screenshots\\/79a\\/79afa6481394df481d2f01d72e0bdeb4.jpg\\\"},{\\\"id\\\":1919305,\\\"image\\\":\\\"https:\\/\\/media.rawg.io\\/media\\/screenshots\\/f00\\/f00998bbc0a52b9b8bbe401b49567178.jpg\\\"},{\\\"id\\\":1919306,\\\"image\\\":\\\"https:\\/\\/media.rawg.io\\/media\\/screenshots\\/dec\\/decfcf321592967814d4a310cac8ec01.jpg\\\"}],\\\"parent_platforms\\\":[{\\\"platform\\\":{\\\"id\\\":1,\\\"name\\\":\\\"PC\\\",\\\"slug\\\":\\\"pc\\\"}},{\\\"platform\\\":{\\\"id\\\":2,\\\"name\\\":\\\"PlayStation\\\",\\\"slug\\\":\\\"playstation\\\"}},{\\\"platform\\\":{\\\"id\\\":3,\\\"name\\\":\\\"Xbox\\\",\\\"slug\\\":\\\"xbox\\\"}},{\\\"platform\\\":{\\\"id\\\":4,\\\"name\\\":\\\"iOS\\\",\\\"slug\\\":\\\"ios\\\"}},{\\\"platform\\\":{\\\"id\\\":5,\\\"name\\\":\\\"Apple Macintosh\\\",\\\"slug\\\":\\\"mac\\\"}},{\\\"platform\\\":{\\\"id\\\":7,\\\"name\\\":\\\"Nintendo\\\",\\\"slug\\\":\\\"nintendo\\\"}}],\\\"genres\\\":[{\\\"id\\\":51,\\\"name\\\":\\\"Indie\\\",\\\"slug\\\":\\\"indie\\\"},{\\\"id\\\":3,\\\"name\\\":\\\"Adventure\\\",\\\"slug\\\":\\\"adventure\\\"},{\\\"id\\\":7,\\\"name\\\":\\\"Puzzle\\\",\\\"slug\\\":\\\"puzzle\\\"}]},{\\\"slug\\\":\\\"disjunction\\\",\\\"name\\\":\\\"Disjunction\\\",\\\"playtime\\\":1,\\\"platforms\\\":[{\\\"platform\\\":{\\\"id\\\":4,\\\"name\\\":\\\"PC\\\",\\\"slug\\\":\\\"pc\\\"}},{\\\"platform\\\":{\\\"id\\\":1,\\\"name\\\":\\\"Xbox One\\\",\\\"slug\\\":\\\"xbox-one\\\"}},{\\\"platform\\\":{\\\"id\\\":18,\\\"name\\\":\\\"PlayStation 4\\\",\\\"slug\\\":\\\"playstation4\\\"}},{\\\"platform\\\":{\\\"id\\\":7,\\\"name\\\":\\\"Nintendo Switch\\\",\\\"slug\\\":\\\"nintendo-switch\\\"}},{\\\"platform\\\":{\\\"id\\\":5,\\\"name\\\":\\\"macOS\\\",\\\"slug\\\":\\\"macos\\\"}}],\\\"stores\\\":[{\\\"store\\\":{\\\"id\\\":1,\\\"name\\\":\\\"Steam\\\",\\\"slug\\\":\\\"steam\\\"}},{\\\"store\\\":{\\\"id\\\":3,\\\"name\\\":\\\"PlayStation Store\\\",\\\"slug\\\":\\\"playstation-store\\\"}},{\\\"store\\\":{\\\"id\\\":2,\\\"name\\\":\\\"Xbox Store\\\",\\\"slug\\\":\\\"xbox-store\\\"}},{\\\"store\\\":{\\\"id\\\":5,\\\"name\\\":\\\"GOG\\\",\\\"slug\\\":\\\"gog\\\"}}],\\\"released\\\":\\\"2021-01-28\\\",\\\"tba\\\":false,\\\"background_image\\\":\\\"https:\\/\\/media.rawg.io\\/media\\/screenshots\\/fdc\\/fdc20b0b4aa51f411f8216b6ddef72b0.jpg\\\",\\\"rating\\\":3.0,\\\"rating_top\\\":3,\\\"ratings\\\":[{\\\"id\\\":3,\\\"title\\\":\\\"meh\\\",\\\"count\\\":8,\\\"percent\\\":72.73},{\\\"id\\\":4,\\\"title\\\":\\\"recommended\\\",\\\"count\\\":2,\\\"percent\\\":18.18},{\\\"id\\\":1,\\\"title\\\":\\\"skip\\\",\\\"count\\\":1,\\\"percent\\\":9.09}],\\\"ratings_count\\\":11,\\\"reviews_text_count\\\":0,\\\"added\\\":343,\\\"added_by_status\\\":{\\\"yet\\\":30,\\\"owned\\\":292,\\\"beaten\\\":4,\\\"toplay\\\":13,\\\"dropped\\\":4},\\\"metacritic\\\":71,\\\"suggestions_count\\\":132,\\\"updated\\\":\\\"2023-02-12T00:16:36\\\",\\\"id\\\":263566,\\\"score\\\":null,\\\"clip\\\":null,\\\"tags\\\":[{\\\"id\\\":31,\\\"name\\\":\\\"Singleplayer\\\",\\\"slug\\\":\\\"singleplayer\\\",\\\"language\\\":\\\"eng\\\",\\\"games_count\\\":220522,\\\"image_background\\\":\\\"https:\\/\\/media.rawg.io\\/media\\/games\\/511\\/5118aff5091cb3efec399c808f8c598f.jpg\\\"},{\\\"id\\\":42396,\\\"name\\\":\\\"\u0414\u043B\u044F \u043E\u0434\u043D\u043E\u0433\u043E \u0438\u0433\u0440\u043E\u043A\u0430\\\",\\\"slug\\\":\\\"dlia-odnogo-igroka\\\",\\\"language\\\":\\\"rus\\\",\\\"games_count\\\":46028,\\\"image_background\\\":\\\"https:\\/\\/media.rawg.io\\/media\\/games\\/8cc\\/8cce7c0e99dcc43d66c8efd42f9d03e3.jpg\\\"},{\\\"id\\\":42417,\\\"name\\\":\\\"\u042D\u043A\u0448\u0435\u043D\\\",\\\"slug\\\":\\\"ekshen\\\",\\\"language\\\":\\\"rus\\\",\\\"games_count\\\":38542,\\\"image_background\\\":\\\"https:\\/\\/media.rawg.io\\/media\\/games\\/2ba\\/2bac0e87cf45e5b508f227d281c9252a.jpg\\\"},{\\\"id\\\":42398,\\\"name\\\":\\\"\u0418\u043D\u0434\u0438\\\",\\\"slug\\\":\\\"indi-2\\\",\\\"language\\\":\\\"rus\\\",\\\"games_count\\\":53503,\\\"image_background\\\":\\\"https:\\/\\/media.rawg.io\\/media\\/games\\/63f\\/63f0e68688cad279ed38cde931dbfcdb.jpg\\\"},{\\\"id\\\":42400,\\\"name\\\":\\\"\u0410\u0442\u043C\u043E\u0441\u0444\u0435\u0440\u0430\\\",\\\"slug\\\":\\\"atmosfera\\\",\\\"language\\\":\\\"rus\\\",\\\"games_count\\\":6083,\\\"image_background\\\":\\\"https:\\/\\/media.rawg.io\\/media\\/games\\/960\\/960b601d9541cec776c5fa42a00bf6c4.jpg\\\"},{\\\"id\\\":42401,\\\"name\\\":\\\"\u041E\u0442\u043B\u0438\u0447\u043D\u044B\u0439 \u0441\u0430\u0443\u043D\u0434\u0442\u0440\u0435\u043A\\\",\\\"slug\\\":\\\"otlichnyi-saundtrek\\\",\\\"language\\\":\\\"rus\\\",\\\"games_count\\\":4613,\\\"image_background\\\":\\\"https:\\/\\/media.rawg.io\\/media\\/games\\/7cf\\/7cfc9220b401b7a300e409e539c9afd5.jpg\\\"},{\\\"id\\\":42394,\\\"name\\\":\\\"\u0413\u043B\u0443\u0431\u043E\u043A\u0438\u0439 \u0441\u044E\u0436\u0435\u0442\\\",\\\"slug\\\":\\\"glubokii-siuzhet\\\",\\\"language\\\":\\\"rus\\\",\\\"games_count\\\":11861,\\\"image_background\\\":\\\"https:\\/\\/media.rawg.io\\/media\\/games\\/4be\\/4be6a6ad0364751a96229c56bf69be59.jpg\\\"},{\\\"id\\\":24,\\\"name\\\":\\\"RPG\\\",\\\"slug\\\":\\\"rpg\\\",\\\"language\\\":\\\"eng\\\",\\\"games_count\\\":20341,\\\"image_background\\\":\\\"https:\\/\\/media.rawg.io\\/media\\/games\\/ee3\\/ee3e10193aafc3230ba1cae426967d10.jpg\\\"},{\\\"id\\\":42412,\\\"name\\\":\\\"\u0420\u043E\u043B\u0435\u0432\u0430\u044F \u0438\u0433\u0440\u0430\\\",\\\"slug\\\":\\\"rolevaia-igra\\\",\\\"language\\\":\\\"rus\\\",\\\"games_count\\\":16754,\\\"image_background\\\":\\\"https:\\/\\/media.rawg.io\\/media\\/games\\/4e0\\/4e0e7b6d6906a131307c94266e5c9a1c.jpg\\\"},{\\\"id\\\":45,\\\"name\\\":\\\"2D\\\",\\\"slug\\\":\\\"2d\\\",\\\"language\\\":\\\"eng\\\",\\\"games_count\\\":194092,\\\"image_background\\\":\\\"https:\\/\\/media.rawg.io\\/media\\/games\\/ffe\\/ffed87105b14f5beff72ff44a7793fd5.jpg\\\"},{\\\"id\\\":42439,\\\"name\\\":\\\"\u0421\u0442\u0435\u043B\u0441\\\",\\\"slug\\\":\\\"stels\\\",\\\"language\\\":\\\"rus\\\",\\\"games_count\\\":2033,\\\"image_background\\\":\\\"https:\\/\\/media.rawg.io\\/media\\/games\\/c80\\/c80bcf321da44d69b18a06c04d942662.jpg\\\"},{\\\"id\\\":42415,\\\"name\\\":\\\"\u041F\u0438\u043A\u0441\u0435\u043B\u044C\u043D\u0430\u044F \u0433\u0440\u0430\u0444\u0438\u043A\u0430\\\",\\\"slug\\\":\\\"pikselnaia-grafika\\\",\\\"language\\\":\\\"rus\\\",\\\"games_count\\\":11945,\\\"image_background\\\":\\\"https:\\/\\/media.rawg.io\\/media\\/games\\/501\\/501e7019925a3c692bf1c8062f07abe6.jpg\\\"},{\\\"id\\\":42489,\\\"name\\\":\\\"\u0420\u043E\u043B\u0435\u0432\u043E\u0439 \u044D\u043A\u0448\u0435\u043D\\\",\\\"slug\\\":\\\"rolevoi-ekshen\\\",\\\"language\\\":\\\"rus\\\",\\\"games_count\\\":3643,\\\"image_background\\\":\\\"https:\\/\\/media.rawg.io\\/media\\/games\\/157\\/15742f2f67eacff546738e1ab5c19d20.jpg\\\"},{\\\"id\\\":42470,\\\"name\\\":\\\"\u041A\u0438\u0431\u0435\u0440\u043F\u0430\u043D\u043A\\\",\\\"slug\\\":\\\"kiberpank\\\",\\\"language\\\":\\\"rus\\\",\\\"games_count\\\":1760,\\\"image_background\\\":\\\"https:\\/\\/media.rawg.io\\/media\\/games\\/00d\\/00d374f12a3ab5f96c500a2cfa901e15.jpg\\\"},{\\\"id\\\":42515,\\\"name\\\":\\\"\u0412\u0438\u0434 \u0441\u0432\u0435\u0440\u0445\u0443\\\",\\\"slug\\\":\\\"vid-sverkhu\\\",\\\"language\\\":\\\"rus\\\",\\\"games_count\\\":6230,\\\"image_background\\\":\\\"https:\\/\\/media.rawg.io\\/media\\/games\\/31b\\/31b1a1a45ad7103e52eed8ef658209a2.jpg\\\"},{\\\"id\\\":42665,\\\"name\\\":\\\"\u0410\u043D\u0442\u0438\u0443\u0442\u043E\u043F\u0438\u044F\\\",\\\"slug\\\":\\\"antiutopiia\\\",\\\"language\\\":\\\"rus\\\",\\\"games_count\\\":1133,\\\"image_background\\\":\\\"https:\\/\\/media.rawg.io\\/media\\/screenshots\\/ca0\\/ca06700d8184f451b99396c23b4ffbe4.jpg\\\"},{\\\"id\\\":42508,\\\"name\\\":\\\"\u041D\u0435\u043B\u0438\u043D\u0435\u0439\u043D\u043E\u0441\u0442\u044C\\\",\\\"slug\\\":\\\"nelineinost\\\",\\\"language\\\":\\\"rus\\\",\\\"games_count\\\":1017,\\\"image_background\\\":\\\"https:\\/\\/media.rawg.io\\/media\\/games\\/c81\\/c812e158129e00c9b0f096ae8a0bb7d6.jpg\\\"},{\\\"id\\\":42607,\\\"name\\\":\\\"\u0428\u0443\u0442\u0435\u0440 \u0441 \u0432\u0438\u0434\u043E\u043C \u0441\u0432\u0435\u0440\u0445\u0443\\\",\\\"slug\\\":\\\"shuter-s-vidom-sverkhu\\\",\\\"language\\\":\\\"rus\\\",\\\"games_count\\\":2246,\\\"image_background\\\":\\\"https:\\/\\/media.rawg.io\\/media\\/screenshots\\/80a\\/80a0d07be6109fde6b92ac5283e7056c.jpg\\\"},{\\\"id\\\":42641,\\\"name\\\":\\\"\u0417\u0430\u0433\u043E\u0432\u043E\u0440\\\",\\\"slug\\\":\\\"zagovor\\\",\\\"language\\\":\\\"rus\\\",\\\"games_count\\\":506,\\\"image_background\\\":\\\"https:\\/\\/media.rawg.io\\/media\\/games\\/193\\/19390fa5e75e9048b22c9a736cf9992f.jpg\\\"}],\\\"esrb_rating\\\":null,\\\"user_game\\\":null,\\\"reviews_count\\\":11,\\\"saturated_color\\\":\\\"0f0f0f\\\",\\\"dominant_color\\\":\\\"0f0f0f\\\",\\\"short_screenshots\\\":[{\\\"id\\\":-1,\\\"image\\\":\\\"https:\\/\\/media.rawg.io\\/media\\/screenshots\\/fdc\\/fdc20b0b4aa51f411f8216b6ddef72b0.jpg\\\"},{\\\"id\\\":1726658,\\\"image\\\":\\\"https:\\/\\/media.rawg.io\\/media\\/screenshots\\/e01\\/e01a9a3c3b9036f388be83a200312ffc.jpg\\\"},{\\\"id\\\":1726659,\\\"image\\\":\\\"https:\\/\\/media.rawg.io\\/media\\/screenshots\\/a62\\/a629711ff2f50a4644f19667659e3fb1.jpg\\\"},{\\\"id\\\":1726660,\\\"image\\\":\\\"https:\\/\\/media.rawg.io\\/media\\/screenshots\\/c64\\/c6473ecd589cd2d284a406b40c80268b.jpg\\\"},{\\\"id\\\":1726661,\\\"image\\\":\\\"https:\\/\\/media.rawg.io\\/media\\/screenshots\\/e9c\\/e9c8cd50b9cc361ab24eac24c08180e3.jpg\\\"},{\\\"id\\\":1726662,\\\"image\\\":\\\"https:\\/\\/media.rawg.io\\/media\\/screenshots\\/ff6\\/ff6d0ad04c74cf784de7228add2cd745.jpg\\\"},{\\\"id\\\":1726663,\\\"image\\\":\\\"https:\\/\\/media.rawg.io\\/media\\/screenshots\\/fdc\\/fdc20b0b4aa51f411f8216b6ddef72b0.jpg\\\"}],\\\"parent_platforms\\\":[{\\\"platform\\\":{\\\"id\\\":1,\\\"name\\\":\\\"PC\\\",\\\"slug\\\":\\\"pc\\\"}},{\\\"platform\\\":{\\\"id\\\":2,\\\"name\\\":\\\"PlayStation\\\",\\\"slug\\\":\\\"playstation\\\"}},{\\\"platform\\\":{\\\"id\\\":3,\\\"name\\\":\\\"Xbox\\\",\\\"slug\\\":\\\"xbox\\\"}},{\\\"platform\\\":{\\\"id\\\":5,\\\"name\\\":\\\"Apple Macintosh\\\",\\\"slug\\\":\\\"mac\\\"}},{\\\"platform\\\":{\\\"id\\\":7,\\\"name\\\":\\\"Nintendo\\\",\\\"slug\\\":\\\"nintendo\\\"}}],\\\"genres\\\":[{\\\"id\\\":51,\\\"name\\\":\\\"Indie\\\",\\\"slug\\\":\\\"indie\\\"},{\\\"id\\\":4,\\\"name\\\":\\\"Action\\\",\\\"slug\\\":\\\"action\\\"},{\\\"id\\\":5,\\\"name\\\":\\\"RPG\\\",\\\"slug\\\":\\\"role-playing-games-rpg\\\"}]}],\\\"user_platforms\\\":false}"}

]]></types:shape>
    </types:type>
    <types:type name="game" format="java">
      <types:shape format="raml"><![CDATA[#%RAML 1.0 DataType
type: string]]></types:shape>
    </types:type>
  </types:catalog>
  <types:enrichment select="#306a3fcb-dd51-4569-a432-11f7a9496579">
    <types:processor-declaration>
      <types:input-event>
        <types:message>
          <types:payload type="auto_306a3fcb-dd51-4569-a432-11f7a9496579_Input-Payload"/>
          <types:attributes type="auto_306a3fcb-dd51-4569-a432-11f7a9496579_Input-Attributes"/>
        </types:message>
        <types:variables>
          <types:variable name="outboundHeaders" type="auto_306a3fcb-dd51-4569-a432-11f7a9496579_Input-Variables-outboundHeaders"/>
          <types:variable name="httpStatus" type="auto_306a3fcb-dd51-4569-a432-11f7a9496579_Input-Variables-httpStatus"/>
        </types:variables>
      </types:input-event>
      <types:output-event>
        <types:message>
          <types:payload type="auto_306a3fcb-dd51-4569-a432-11f7a9496579_Output-Payload"/>
          <types:attributes type="auto_306a3fcb-dd51-4569-a432-11f7a9496579_Output-Attributes"/>
        </types:message>
        <types:variables>
          <types:variable name="outboundHeaders" type="auto_306a3fcb-dd51-4569-a432-11f7a9496579_Output-Variables-outboundHeaders"/>
          <types:variable name="httpStatus" type="auto_306a3fcb-dd51-4569-a432-11f7a9496579_Output-Variables-httpStatus"/>
        </types:variables>
      </types:output-event>
    </types:processor-declaration>
  </types:enrichment>
  <types:enrichment select="#ec18abae-f0db-4adb-8615-e960ebf7f22e"/>
</types:mule>